%YAML 1.1
%TAG !u! tag:unity3d.com,2011:
--- !u!114 &11400000
MonoBehaviour:
  m_ObjectHideFlags: 0
  m_CorrespondingSourceObject: {fileID: 0}
  m_PrefabInstance: {fileID: 0}
  m_PrefabAsset: {fileID: 0}
  m_GameObject: {fileID: 0}
  m_Enabled: 1
  m_EditorHideFlags: 0
  m_Script: {fileID: 11500000, guid: 4a27903ac2c9c754b9f68751656a1eaa, type: 3}
  m_Name: AdSettingsData
  m_EditorClassIdentifier: 
  mediationSettings:
  - advertiser: 4
    advertiserName: Unity
    bannerSettings:
      adType: 1
      orderAndroid: 1
      orderiOS: 1
      orderWindows: 1
      weightAndroid: 1
      weightiOS: 1
      weightWindows: 1
    interstitialSettings:
      adType: 2
      orderAndroid: 1
      orderiOS: 1
      orderWindows: 1
      weightAndroid: 1
      weightiOS: 1
      weightWindows: 1
    rewardedSettings:
      adType: 3
      orderAndroid: 1
      orderiOS: 1
      orderWindows: 1
      weightAndroid: 1
      weightiOS: 1
      weightWindows: 1
  advertiserSettings:
  - advertiser: 2
    useSDK: 0
    preprocessorDirective: USE_ADCOLONY
    sdkLink: https://github.com/AdColony/
    platformSettings:
    - platform: 0
      enabled: 0
      appId:
        id: 
        displayName: App ID
        notRequired: 0
      idBanner:
        id: 
        displayName: 
        notRequired: 1
      idInterstitial:
        id: 
        displayName: Interstitial Zone ID
        notRequired: 0
      idRewarded:
        id: 
        displayName: Rewarded Zone ID
        notRequired: 0
      hasBanner: 0
      hasInterstitial: 1
      hasRewarded: 1
      directedForChildren: 0
    - platform: 1
      enabled: 0
      appId:
        id: 
        displayName: App ID
        notRequired: 0
      idBanner:
        id: 
        displayName: 
        notRequired: 1
      idInterstitial:
        id: 
        displayName: Interstitial Zone ID
        notRequired: 0
      idRewarded:
        id: 
        displayName: Rewarded Zone ID
        notRequired: 0
      hasBanner: 0
      hasInterstitial: 1
      hasRewarded: 1
      directedForChildren: 0
  - advertiser: 0
    useSDK: 0
    preprocessorDirective: USE_ADMOB
    sdkLink: https://github.com/googleads/googleads-mobile-unity/releases
    platformSettings:
    - platform: 0
      enabled: 0
      appId:
        id: 
        displayName: App ID
        notRequired: 0
      idBanner:
        id: 
        displayName: Banner ID
        notRequired: 0
      idInterstitial:
        id: 
        displayName: Interstitial ID
        notRequired: 0
      idRewarded:
        id: 
        displayName: Rewarded Video ID
        notRequired: 0
      hasBanner: 1
      hasInterstitial: 1
      hasRewarded: 1
      directedForChildren: 0
    - platform: 1
      enabled: 0
      appId:
        id: 
        displayName: App ID
        notRequired: 0
      idBanner:
        id: 
        displayName: Banner ID
        notRequired: 0
      idInterstitial:
        id: 
        displayName: Interstitial ID
        notRequired: 0
      idRewarded:
        id: 
        displayName: Rewarded Video ID
        notRequired: 0
      hasBanner: 1
      hasInterstitial: 1
      hasRewarded: 1
      directedForChildren: 0
  - advertiser: 3
    useSDK: 0
    preprocessorDirective: USE_CHARTBOOST
    sdkLink: https://answers.chartboost.com/en-us/articles/download
    platformSettings:
    - platform: 0
      enabled: 0
      appId:
        id: 
        displayName: App ID
        notRequired: 0
      idBanner:
        id: 
        displayName: 
        notRequired: 1
      idInterstitial:
        id: 
        displayName: App Signature
        notRequired: 0
      idRewarded:
        id: 
        displayName: 
        notRequired: 1
      hasBanner: 0
      hasInterstitial: 1
      hasRewarded: 1
      directedForChildren: 0
    - platform: 1
      enabled: 0
      appId:
        id: 
        displayName: App ID
        notRequired: 0
      idBanner:
        id: 
        displayName: 
        notRequired: 1
      idInterstitial:
        id: 
        displayName: App Signature
        notRequired: 0
      idRewarded:
        id: 
        displayName: 
        notRequired: 1
      hasBanner: 0
      hasInterstitial: 1
      hasRewarded: 1
      directedForChildren: 0
  - advertiser: 5
    useSDK: 0
    preprocessorDirective: USE_HEYZAP
    sdkLink: https://developers.heyzap.com/docs/unity_sdk_setup_and_requirements
    platformSettings:
    - platform: 0
      enabled: 0
      appId:
        id: 
        displayName: Publisher ID
        notRequired: 0
      idBanner:
        id: 
        displayName: 
        notRequired: 1
      idInterstitial:
        id: 
        displayName: 
        notRequired: 1
      idRewarded:
        id: 
        displayName: 
        notRequired: 1
      hasBanner: 1
      hasInterstitial: 1
      hasRewarded: 1
      directedForChildren: 0
    - platform: 1
      enabled: 0
      appId:
        id: 
        displayName: Publisher ID
        notRequired: 0
      idBanner:
        id: 
        displayName: 
        notRequired: 1
      idInterstitial:
        id: 
        displayName: 
        notRequired: 1
      idRewarded:
        id: 
        displayName: 
        notRequired: 1
      hasBanner: 1
      hasInterstitial: 1
      hasRewarded: 1
      directedForChildren: 0
  - advertiser: 4
    useSDK: 1
    preprocessorDirective: USE_UNITYADS
    sdkLink: https://www.assetstore.unity3d.com/en/#!/content/66123
    platformSettings:
    - platform: 0
      enabled: 1
      appId:
        id: 3642613
        displayName: Game ID
        notRequired: 0
      idBanner:
        id: banner
        displayName: Placement ID Banner
        notRequired: 0
      idInterstitial:
        id: video
        displayName: Placement ID Interstitial
        notRequired: 0
      idRewarded:
        id: rewardedVideo
        displayName: Placement ID Rewarded
        notRequired: 0
      hasBanner: 1
      hasInterstitial: 1
      hasRewarded: 1
      directedForChildren: 0
    - platform: 1
      enabled: 1
      appId:
        id: 3642612
        displayName: Game ID
        notRequired: 0
      idBanner:
        id: banner
        displayName: Placement ID Banner
        notRequired: 0
      idInterstitial:
        id: video
        displayName: Placement ID Interstitial
        notRequired: 0
      idRewarded:
        id: rewardedVideo
        displayName: Placement ID Rewarded
        notRequired: 0
      hasBanner: 1
      hasInterstitial: 1
      hasRewarded: 1
      directedForChildren: 0
  - advertiser: 1
    useSDK: 0
    preprocessorDirective: USE_VUNGLE
    sdkLink: https://publisher.vungle.com/sdk/plugins/unity
    platformSettings:
    - platform: 0
      enabled: 0
      appId:
        id: 
        displayName: App ID
        notRequired: 0
      idBanner:
        id: 
        displayName: 
        notRequired: 1
      idInterstitial:
        id: 
        displayName: Interstitial Placement ID
        notRequired: 0
      idRewarded:
        id: 
        displayName: Rewarded Placement ID
        notRequired: 0
      hasBanner: 0
      hasInterstitial: 1
      hasRewarded: 1
      directedForChildren: 0
    - platform: 1
      enabled: 0
      appId:
        id: 
        displayName: App ID
        notRequired: 0
      idBanner:
        id: 
        displayName: 
        notRequired: 1
      idInterstitial:
        id: 
        displayName: Interstitial Placement ID
        notRequired: 0
      idRewarded:
        id: 
        displayName: Rewarded Placement ID
        notRequired: 0
      hasBanner: 0
      hasInterstitial: 1
      hasRewarded: 1
      directedForChildren: 0
    - platform: 2
      enabled: 0
      appId:
        id: 
        displayName: App ID
        notRequired: 0
      idBanner:
        id: 
        displayName: 
        notRequired: 1
      idInterstitial:
        id: 
        displayName: Interstitial Placement ID
        notRequired: 0
      idRewarded:
        id: 
        displayName: Rewarded Placement ID
        notRequired: 0
      hasBanner: 0
      hasInterstitial: 1
      hasRewarded: 1
      directedForChildren: 0
  - advertiser: 6
    useSDK: 0
    preprocessorDirective: USE_APPLOVIN
    sdkLink: https://dash.applovin.com/docs/integration#unity3dIntegration
    platformSettings:
    - platform: 0
      enabled: 0
      appId:
        id: 
        displayName: SDK key
        notRequired: 0
      idBanner:
        id: 
        displayName: 
        notRequired: 1
      idInterstitial:
        id: 
        displayName: 
        notRequired: 1
      idRewarded:
        id: 
        displayName: 
        notRequired: 1
      hasBanner: 1
      hasInterstitial: 1
      hasRewarded: 1
      directedForChildren: 0
    - platform: 1
      enabled: 0
      appId:
        id: 
        displayName: SDK key
        notRequired: 0
      idBanner:
        id: 
        displayName: 
        notRequired: 1
      idInterstitial:
        id: 
        displayName: 
        notRequired: 1
      idRewarded:
        id: 
        displayName: 
        notRequired: 1
      hasBanner: 1
      hasInterstitial: 1
      hasRewarded: 1
      directedForChildren: 0
  - advertiser: 7
    useSDK: 0
    preprocessorDirective: USE_FACEBOOKADS
    sdkLink: https://developers.facebook.com/docs/audience-network/download#unity
    platformSettings:
    - platform: 0
      enabled: 0
      appId:
        id: 
        displayName: 
        notRequired: 1
      idBanner:
        id: 
        displayName: Banner Placement ID
        notRequired: 0
      idInterstitial:
        id: 
        displayName: Interstitial Placement ID
        notRequired: 0
      idRewarded:
        id: 
        displayName: Rewarded Placement ID
        notRequired: 0
      hasBanner: 1
      hasInterstitial: 1
      hasRewarded: 1
      directedForChildren: 0
    - platform: 1
      enabled: 0
      appId:
        id: 
        displayName: 
        notRequired: 1
      idBanner:
        id: 
        displayName: Banner Placement ID
        notRequired: 0
      idInterstitial:
        id: 
        displayName: Interstitial Placement ID
        notRequired: 0
      idRewarded:
        id: 
        displayName: Rewarded Placement ID
        notRequired: 0
      hasBanner: 1
      hasInterstitial: 1
      hasRewarded: 1
      directedForChildren: 0
  debugMode: 0
  usePlaymaker: 0
  useBolt: 0
  useGameflow: 0
  bannerMediation: 0
  interstitialMediation: 0
  rewardedMediation: 0
  externalFileUrl: Paste your external config file url here
